{
	"group_document": {
		"DMS_BACKEND_REPOSITORY_API_TOKEN": "ENC[AES256_GCM,data:hRqFb+5HgK8lN39pul4nIxjKNEo=,iv:0klTECSOzJWUu2Jhhcll5uOjuq9i2kZ+dczy81v7+dM=,tag:MVE9Np7X45nV25AioOlBlg==,type:str]"
	},
	"sops": {
		"kms": [
			{
				"arn": "arn:aws:kms:eu-central-1:195885473883:alias/core-services-main",
				"created_at": "2021-06-02T09:24:13Z",
				"enc": "AQICAHjnQ4MsAQ5tRpfhpWoyO+WZcUPIO2izpUCsYwgyC03mTgERFPPOT3N9qj/BCby/q50/AAAAfjB8BgkqhkiG9w0BBwagbzBtAgEAMGgGCSqGSIb3DQEHATAeBglghkgBZQMEAS4wEQQMR7WsmKTd/eHdEXhUAgEQgDuxLQe+Gsqm3fNbikpuTaMu3oPEe+/S4ScTAViXlWgOfJ6P52kRF0jcbIjStwjtues/UMYQSK5aJGfS1Q==",
				"aws_profile": ""
			}
		],
		"gcp_kms": null,
		"azure_kv": null,
		"hc_vault": null,
		"age": null,
		"lastmodified": "2021-06-02T11:33:34Z",
		"mac": "ENC[AES256_GCM,data:HKzoiu7kM9Uijx17RrB2sdKDbq9TzBR5AhbocGMS3ZG7S/HaUKNGOlvZz3pIYvrULDUDRf4xilM56bE8w4xX4dxWf8opcCMPvsaeSHS2tF5KFgM54RWY6NiBI4yvcfKrNUuJaw+nhkv4pmRAtuZ6iYQhgiUULfg36Lp2HIZ0jFQ=,iv:0XJqioCsN85ZAS9qVL+wQ6wbn70J3NDTxa1EDVSUBps=,tag:KSxcjoD1w6MDP+tG6Y3Y3g==,type:str]",
		"pgp": null,
		"unencrypted_suffix": "_unencrypted",
		"version": "3.7.1"
	}
}