{
	"infra-gitlab": {
		"GITLAB_TOKEN": "ENC[AES256_GCM,data:kZLGvSkPc1I2xzlwzhWRb7ACOqw=,iv:33Gz9xkzMqHW68Eve9yHO/G3gHlohwVtgLIDY0eO7tk=,tag:bcrUFx07hcHu2UvbfPq91w==,type:str]"
	},
	"sops": {
		"kms": [
			{
				"arn": "arn:aws:kms:eu-central-1:195885473883:alias/core-services-main",
				"created_at": "2021-05-10T15:17:07Z",
				"enc": "AQICAHjnQ4MsAQ5tRpfhpWoyO+WZcUPIO2izpUCsYwgyC03mTgHrtyxXEq4WsooLbEt96hVOAAAAfjB8BgkqhkiG9w0BBwagbzBtAgEAMGgGCSqGSIb3DQEHATAeBglghkgBZQMEAS4wEQQMW6tY/rNqlnUa2p/YAgEQgDvoCiL1Bb0FRChBu6x+nIo3RNyecZUy5yz/xwCYxlUn9/xk00T6sVhQoNUICmRR4n5IP7MmjaMaA5J9MQ==",
				"aws_profile": ""
			}
		],
		"gcp_kms": null,
		"azure_kv": null,
		"hc_vault": null,
		"age": null,
		"lastmodified": "2021-05-12T12:50:48Z",
		"mac": "ENC[AES256_GCM,data:5+wqrNpew+p6/L0ovj4494WyMC1ssI5wh3lqYbRleSOMpRyjeDl2Kp37Fd9Em4kWv7fAsn0BwwQU7LQH7PHcDHOzrXVmcUvt7kcWHA2I6BrHUoc5jD+f51E4stEFeAqrZk0LrhLzGo+oxr50dT1JGXxrX4odLa1dmiwMYF7WmfQ=,iv:btxutN36B7X+cwyoRk3b6dZue5n6uun5HHvfOrVxIyI=,tag:u3zIlk2GIdhd6Etj10W91w==,type:str]",
		"pgp": null,
		"unencrypted_suffix": "_unencrypted",
		"version": "3.7.1"
	}
}