{
	"document-class-manager": {
		"DOCKER_AUTH_CONFIG": "ENC[AES256_GCM,data:VmJ07F+c4jXiNWa7zBE9fy/XqrltcWiZemzt87++Dnbt5sBKbB4yL2u+Ap5JvPMcv5+H4oxy8bWOhEbW07RQs002zqN2BjK4FYKouWCT5aWe2+aUfbjbiJlnD9fni7UPE4I1FiiospPzfw51Q81u+Z4zE1GVI8glK6X61YXtVGiDHxlUrpsxSDVhC1RHl04=,iv:hPe9y+ShHQ4yv4RxFHHLAbvPKldoS1lOZAnq6n0Wfw0=,tag:od2tpTGIRxxVoEon9qbdKw==,type:str]"
	},
	"sops": {
		"kms": [
			{
				"arn": "arn:aws:kms:eu-central-1:195885473883:alias/core-services-main",
				"created_at": "2021-05-11T12:28:46Z",
				"enc": "AQICAHjnQ4MsAQ5tRpfhpWoyO+WZcUPIO2izpUCsYwgyC03mTgFxSOvSMGkAlerJNvh28NtuAAAAfjB8BgkqhkiG9w0BBwagbzBtAgEAMGgGCSqGSIb3DQEHATAeBglghkgBZQMEAS4wEQQMJgnaoTihmIhxfRhaAgEQgDvAt4CXslYIbtaBRoGKeFr4uvWLeFKtYRUfmIFHXcP8Qj14EgJDB7PcC7D3/h2ZYznoOqpXCKeGcBji1Q==",
				"aws_profile": ""
			}
		],
		"gcp_kms": null,
		"azure_kv": null,
		"hc_vault": null,
		"age": null,
		"lastmodified": "2021-05-27T10:18:20Z",
		"mac": "ENC[AES256_GCM,data:SPfUlAksTUpN4rLcpOfEIPhhLrlDII36U6IQzKu2je3SEn2BWrU1pRcw6Paymc92c5H96qJaHqrJyV3EsKs8SdwjxKzGNkvfLO1LCNowUCkEGj7OYc6N7TkGjlSNBsRGe8i5+fMQu0+jC3P5cDl/VC9wyzYi3eB+46/GhomVM94=,iv:GHQgf3zdNMlBBEp9wFSDV5D0mgZf7fbSvuJMyFnC9KU=,tag:khb5ImX3vqybzMKb/qkVMw==,type:str]",
		"pgp": null,
		"unencrypted_suffix": "_unencrypted",
		"version": "3.7.1"
	}
}